,q,I_smeared,residuals
0,0.0661251768,2.5653313708053536,0.03615078120404163
1,0.0749418586,2.4408533750294104,0.025460833096876447
2,0.0837585405,2.311363667940582,0.014564873482225184
3,0.0925752148,2.1740673031694326,0.0073744998244599565
4,0.101391882,2.0310005689381923,-0.0038012121330646244
5,0.110208549,1.88399609799879,-0.015125230754060786
6,0.119025216,1.7348764871624485,-0.0293276495166084
7,0.127841875,1.5854214458240106,-0.045813884007518804
8,0.13665852,1.4373366036065442,-0.058635815923633185
9,0.145475164,1.2922246834601578,-0.06961088550736454
10,0.154291809,1.1515608341798869,-0.07282452901222058
11,0.163108438,1.0166710986998515,-0.08032002505445943
12,0.171925053,0.888714036626124,-0.07592598672372025
13,0.180741683,0.768667241140737,-0.06976788233645524
14,0.189558282,0.6573203097640742,-0.06701094831933414
15,0.198374867,0.5552679073932517,-0.06297325320994053
16,0.207191467,0.46291086284114247,-0.06701598978969635
17,0.216008067,0.3804609926716165,-0.06605403136974505
18,0.224824637,0.30794862756793717,-0.06267786341561238
19,0.233641192,0.24523363293787281,-0.05652278868252735
20,0.242457747,0.19202069988992726,-0.053999381087437945
21,0.251274288,0.14787671409368636,-0.053390579864730926
22,0.260090828,0.11224950190570641,-0.056201651897803205
23,0.268907338,0.08448890433900713,-0.059410170881068855
24,0.277723849,0.06386769557676156,-0.0657745711532171
25,0.286540359,0.04960371954911063,-0.07137269500337362
26,0.29535684,0.040881079847077395,-0.0785164024766918
27,0.304173291,0.036870584850230634,-0.09269622546881896
28,0.312989742,0.03674908181278229,-0.10524083364465756
29,0.321806222,0.039717051459141464,-0.11966064415549793
30,0.330622613,0.04501397685875956,-0.14123797960146164
31,0.339439064,0.05193191858881326,-0.1553003062132669
32,0.348255455,0.05982591718292371,-0.17054950188516013
33,0.357071817,0.06812267705937543,-0.18219902379237993
34,0.365888208,0.07632620726715911,-0.19235908112661126
35,0.37470457,0.08402417106557694,-0.19936273983450603
36,0.383520901,0.09008069874180741,-0.21382581610904966
37,0.401153535,0.10129502921737271,-0.20994956104246132
38,0.418786079,0.10607957400283813,-0.19014258862521383
39,0.436418563,0.10528021100742352,-0.15193639793757766
40,0.454050958,0.09959347296365069,-0.14222921008825062
41,0.471683264,0.09022847064546748,-0.09696696468448611
42,0.48931554,0.07863290805930254,-0.045597875949517606
43,0.506947637,0.06625405179118513,0.016214202604931123
44,0.524579704,0.05435391321851823,0.05878420137709285
45,0.542211711,0.04388978821861899,0.07275851228836079
46,0.5598436,0.035459413789383214,0.0959862405344843
47,0.577475369,0.02930377040805814,0.077518819412708
48,0.595107019,0.025354569648486296,0.06157426315316503
49,0.612738609,0.023310460053537763,0.02732443130214425
50,0.63037008,0.022725911003355498,-0.007547442307439663
51,0.648001432,0.023098440537961337,-0.038297095666255256
52,0.665632665,0.023943351601212005,-0.04102367898097152
53,0.683263779,0.02484902830531515,-0.05924071765752567
54,0.700894833,0.025510039119600942,-0.07425936229204884
55,0.718525648,0.025738850387542343,-0.05206599472424774
56,0.736156404,0.025459676422703133,-0.015304652304402854
57,0.753787041,0.024689498884184112,0.025141406545147148
58,0.771417558,0.023511922162105296,0.0685853653730122
59,0.797863066,0.021252886072026713,0.12865922297351043
60,0.824308217,0.018798467998950633,0.18367733667843547
61,0.850753129,0.016517902645099655,0.227903328113228
62,0.877197623,0.014634939065576284,0.2219673370549516
63,0.90364176,0.013221309504069474,0.19500802367637937
64,0.930085599,0.012231953854079845,0.17411142394040516
65,0.956528962,0.011556405357927436,0.1573719483500632
66,0.982972085,0.011066751902601674,0.16052471992379294
67,1.00941479,0.010651725293938857,0.1569452435826193
68,1.03585708,0.010234396967316924,0.1900934786414868
69,1.06229889,0.009776116020067177,0.23464573443643266
70,1.08874035,0.009271158272616225,0.2683438391976848
71,1.11518133,0.008736496033901787,0.2695616165456144
72,1.14162195,0.008200121206181993,0.27793511119989617
73,1.17687535,0.0075304814522791285,0.2656742784611722
74,1.21212792,0.006952664105863203,0.2359473706197402
75,1.24737966,0.006476358973870769,0.22842509319005674
76,1.28263044,0.006082036349861621,0.2526759392627282
77,1.31788051,0.005739043028014588,0.2574635995155185
78,1.35312951,0.005423308377198938,0.2315177523125206
79,1.38837755,0.0051254045599107055,0.22546055379282878
80,1.42362475,0.004847532400725101,0.19768322151082335
81,1.45887077,0.004594952301803116,0.13310928386321527
82,1.49411595,0.0043691913661454964,0.14564724391344133
83,1.52935994,0.004166896550721427,0.1513823437023902
84,1.57341337,0.0039394732567386735,0.10095173445396671
85,1.61746538,0.0037354587762632465,0.07839493629778727
86,1.66151524,0.0035550267206721233,0.012964144914876415
87,1.70556366,0.00339841863499652,-0.07789711337963728
88,1.74960995,0.0032621658863830148,-0.12699617043159664
89,1.79365444,0.003141224463158754,-0.16673764549842257
90,1.83769679,0.0030328008718313454,-0.23439527877828475
91,1.88173735,0.0029367973192002245,-0.28801547987603354
92,1.92577565,0.0028532884696844943,-0.3348556999074358
93,1.97861898,0.002767405300354055,-0.3575004967989388
94,2.03145909,0.0026936031796995484,-0.3810852502057332
95,2.08429599,0.00262987416420626,-0.4303517255313292
96,2.13712978,0.002575629493492265,-0.5138200738068881
97,2.18996024,0.002529730323505929,-0.6096468092817325
98,2.24278712,0.0024904804577423846,-0.6456311884674593
99,2.29561019,0.002456692289557923,-0.7021423576286644
100,2.35723305,0.002423257618287469,-0.6986063063772466
101,2.41885066,0.0023950831293705864,-0.6813409290534558
102,2.48046303,0.002370929691338814,-0.7412583969233848
103,2.54206991,0.0023499098300293225,-0.8141866837981346
104,2.60367179,0.00233122007246726,-0.8259867623462556
105,2.66526794,0.002314163751710782,-0.8499526878589226
106,2.73565626,0.002296004673992668,-0.9262378307897906
107,2.80603719,0.0022785106655606644,-1.0248877305526376
108,2.87641001,0.0022611634972342877,-0.993254208138323
109,2.94677496,0.0022436615972357948,-0.8930790989836337
110,3.01713181,0.0022254674100348447,-0.7853224836838392
111,3.08747983,0.0022064003016777534,-0.8472453548891189
112,3.16661167,0.0021839929527050555,-0.9229506670271888
113,3.24573183,0.0021600833050326846,-0.8308630448458978
114,3.32484055,0.0021347512443595333,-0.8195878645403907
115,3.40393734,0.0021083187889629164,-0.8297828573227086
116,3.49180913,0.002076957179487347,-0.7263502024073772
