,r,sld
0,7.967382585867714,9.41544
1,8.3867185114397,9.41544
2,8.3867185114397,12.293321377040556
3,9.3708957646771,12.293321377040556
4,9.3708957646771,7.154344056499878
5,10.134067923394829,7.154344056499878
6,10.134067923394829,12.293321377040556
7,11.118245176632229,12.293321377040556
8,11.118245176632229,9.41544
9,11.67415743546384,9.41544
