.A_radius = 9.68783 in [7.5,12.5]
.A_radius_pd = 0.12
.A_radius_pd_n = 35
.A_radius_pd_nsigma = 3
.A_scale = 1
.A_sld = 12.2824
.A_sld_M0 = 0
.A_sld_mphi = 0
.A_sld_mtheta = 0
.A_sld_solvent = 9.414
.A_sld_solvent_M0 = 0
.A_sld_solvent_mphi = 0
.A_sld_solvent_mtheta = 0
.A_thickness = 2.30116 in [2,4.2]
.A_thickness_pd = 0
.A_thickness_pd_n = 35
.A_thickness_pd_nsigma = 3
.A_volfraction = 0.00122937 in [0.00057334,0.0086001]
.B_length = 0.984
.B_length_pd = 0
.B_length_pd_n = 35
.B_length_pd_nsigma = 3
.B_phi = 60
.B_phi_pd = 0
.B_phi_pd_n = 35
.B_phi_pd_nsigma = 3
.B_radius = 0.104576
.B_radius_pd = 0
.B_radius_pd_n = 35
.B_radius_pd_nsigma = 3
.B_scale = 0.000672215 in [0,0.0057334]
.B_sld = 79.6587
.B_sld_M0 = 0
.B_sld_mphi = 0
.B_sld_mtheta = 0
.B_sld_solvent = 9.414
.B_sld_solvent_M0 = 0
.B_sld_solvent_mphi = 0
.B_sld_solvent_mtheta = 0
.B_theta = 60
.B_theta_pd = 0
.B_theta_pd_n = 35
.B_theta_pd_nsigma = 3
.background = 0
.scale = 1000
.up_angle = 0
.up_frac_f = 0
.up_frac_i = 0
.up_phi = 0

[chisq=0.001(65), nllf=0.0184034]
              Parameter       mean  median    best [   68% interval] [   95% interval]
 1             A_radius    9.7(13)   9.602   9.688 [   8.29   11.15] [   7.65   12.18]
 2          A_thickness   2.94(66)   2.855   2.301 [   2.19    3.76] [   2.03    4.12]
 3        A_volfraction 0.00103(33) 0.00097 0.00123 [ 0.0007  0.0014] [ 0.0006  0.0018]
 4              B_scale 2.3(14)e-3 0.00224 0.00067 [ 0.0007  0.0039] [ 0.0001  0.0047]

Statistics and plots based on 96840 samples (96.4% of total samples drawn)
