{
  "A_radius": {
    "best": 9.904750468821051,
    "index": 1,
    "integer": false,
    "label": "A_radius",
    "mean": 10.000062153431243,
    "median": 10.000181511865593,
    "p68": [
      9.931919190715846,
      10.067587780676435
    ],
    "p68_range": [
      9.931919190715846,
      10.067587780676435
    ],
    "p95": [
      9.90530182396943,
      10.094934832140927
    ],
    "p95_range": [
      9.90530182396943,
      10.094934832140927
    ],
    "std": 0.05733635573722072
  },
  "A_thickness": {
    "best": 2.482368094749583,
    "index": 2,
    "integer": false,
    "label": "A_thickness",
    "mean": 2.473712354810172,
    "median": 2.412775376586933,
    "p68": [
      2.1269748922983833,
      2.819697461206409
    ],
    "p68_range": [
      2.1269748922983833,
      2.819697461206409
    ],
    "p95": [
      2.020249715052469,
      3.265087355088465
    ],
    "p95_range": [
      2.020249715052469,
      3.265087355088465
    ],
    "std": 0.34248252679895436
  },
  "A_x_surf1_vesicle": {
    "best": 0.6398043257121792,
    "index": 3,
    "integer": false,
    "label": "A_x_surf1_vesicle",
    "mean": 0.6343640296707205,
    "median": 0.6360230536010485,
    "p68": [
      0.6195015745271074,
      0.6488978072796165
    ],
    "p68_range": [
      0.6195015745271074,
      0.6488978072796165
    ],
    "p95": [
      0.6030726608915234,
      0.6536560567794821
    ],
    "p95_range": [
      0.6030726608915234,
      0.6536560567794821
    ],
    "std": 0.014554954312576562
  },
  "B_scale": {
    "best": 0.000168314048563176,
    "index": 4,
    "integer": false,
    "label": "B_scale",
    "mean": 0.00016466870187417816,
    "median": 0.0001662121235919898,
    "p68": [
      0.00015676732866725803,
      0.00017308709425567232
    ],
    "p68_range": [
      0.00015676732866725803,
      0.00017308709425567232
    ],
    "p95": [
      0.00014505077942955896,
      0.00017555086547863105
    ],
    "p95_range": [
      0.00014505077942955896,
      0.00017555086547863105
    ],
    "std": 1.5224107873773758e-05
  }
}