.background = 0
.length = 0.984
.length_pd = 0
.length_pd_n = 35
.length_pd_nsigma = 3
.phi = 60
.phi_pd = 0
.phi_pd_n = 35
.phi_pd_nsigma = 3
.radius = 0.104576 in [0.05,0.331386]
.radius_pd = 0
.radius_pd_n = 35
.radius_pd_nsigma = 3
.scale = 0.254985 in [0,100]
.sld = 79.6587 in [16.7099,150]
.sld_M0 = 0
.sld_mphi = 0
.sld_mtheta = 0
.sld_solvent = 9.414
.sld_solvent_M0 = 0
.sld_solvent_mphi = 0
.sld_solvent_mtheta = 0
.theta = 60
.theta_pd = 0
.theta_pd_n = 35
.theta_pd_nsigma = 3
.up_angle = 0
.up_frac_f = 0
.up_frac_i = 0
.up_phi = 0

[chisq=1388.436(28), nllf=86083]
              Parameter       mean  median    best [   68% interval] [   95% interval]
 1               radius 0.104577(84) 0.104576 0.104576 [0.10449 0.10466] [0.10442 0.10474]
 2                scale 0.2545(15) 0.25448 0.25498 [ 0.2528  0.2562] [ 0.2519  0.2572]
 3                  sld  79.73(23)  79.727  79.659 [  79.47   79.98] [  79.29   80.14]

Statistics and plots based on 100230 samples (100.0% of total samples drawn)
