.background = 0
.radius = 32.1555 in [28.8,35.2]
.radius_pd = 0.20146 in [0.15,0.29]
.radius_pd_n = 35
.radius_pd_nsigma = 3
.scale = 1000
.sld = 1.21987
.sld_M0 = 0
.sld_mphi = 0
.sld_mtheta = 0
.sld_solvent = 6.17499
.sld_solvent_M0 = 0
.sld_solvent_mphi = 0
.sld_solvent_mtheta = 0
.thickness = 2.12164 in [2,4.2]
.thickness_pd = 0
.thickness_pd_n = 35
.thickness_pd_nsigma = 3
.up_angle = 0
.up_frac_f = 0
.up_frac_i = 0
.up_phi = 0
.volfraction = 0.00467255

[chisq=478.571(28), nllf=30150]
              Parameter       mean  median    best [   68% interval] [   95% interval]
 1               radius 32.156(15) 32.1557 32.1555 [ 32.141  32.171] [ 32.127  32.184]
 2            radius_pd 0.20145(39) 0.20145 0.20146 [ 0.2011  0.2018] [ 0.2007  0.2022]
 3            thickness 2.12166(74) 2.12166 2.12164 [ 2.1209  2.1224] [ 2.1202  2.1231]

Statistics and plots based on 99630 samples (99.4% of total samples drawn)
