{
  "radius": {
    "best": 33.092248572342434,
    "index": 1,
    "integer": false,
    "label": "radius",
    "mean": 33.09258277842696,
    "median": 33.09257748100252,
    "p68": [
      33.08101608705074,
      33.10396103281003
    ],
    "p68_range": [
      33.08101608705074,
      33.10396103281003
    ],
    "p95": [
      33.06995716220859,
      33.115722327955744
    ],
    "p95_range": [
      33.06995716220859,
      33.115722327955744
    ],
    "std": 0.011547014764851054
  },
  "thickness": {
    "best": 2.104749432675651,
    "index": 2,
    "integer": false,
    "label": "thickness",
    "mean": 2.1047518192570625,
    "median": 2.104743548420932,
    "p68": [
      2.103972926603833,
      2.105542733581472
    ],
    "p68_range": [
      2.103972926603833,
      2.105542733581472
    ],
    "p95": [
      2.103255186604493,
      2.106319659465542
    ],
    "p95_range": [
      2.103255186604493,
      2.106319659465542
    ],
    "std": 0.0007875328700184433
  },
  "x_surf1_vesicle": {
    "best": 0.6096894265579961,
    "index": 3,
    "integer": false,
    "label": "x_surf1_vesicle",
    "mean": 0.6096792699669938,
    "median": 0.6096823788319393,
    "p68": [
      0.6093237706241921,
      0.6100376587051021
    ],
    "p68_range": [
      0.6093237706241921,
      0.6100376587051021
    ],
    "p95": [
      0.6089661792542641,
      0.6103765385185269
    ],
    "p95_range": [
      0.6089661792542641,
      0.6103765385185269
    ],
    "std": 0.0003591357744342011
  }
}