.A_scale = 0.00445774
.A_sl_methyl = 0.253857
.A_sl_methyl_M0 = 0
.A_sl_methyl_mphi = 0
.A_sl_methyl_mtheta = 0
.A_sl_methylene = 0.225678
.A_sl_methylene_M0 = 0
.A_sl_methylene_mphi = 0
.A_sl_methylene_mtheta = 0
.A_sl_surf1_tail = 2.962
.A_sl_surf1_tail_M0 = 0
.A_sl_surf1_tail_mphi = 0
.A_sl_surf1_tail_mtheta = 0
.A_sl_surf2_tail = 5.00548
.A_sl_surf2_tail_M0 = 0
.A_sl_surf2_tail_mphi = 0
.A_sl_surf2_tail_mtheta = 0
.A_sld_bilayer = 11.0143
.A_sld_bilayer_M0 = 0
.A_sld_bilayer_mphi = 0
.A_sld_bilayer_mtheta = 0
.A_sld_solvent = 9.41544
.A_sld_solvent_M0 = 0
.A_sld_solvent_mphi = 0
.A_sld_solvent_mtheta = 0
.A_sld_surf1 = 8.54612
.A_sld_surf1_M0 = 0
.A_sld_surf1_mphi = 0
.A_sld_surf1_mtheta = 0
.A_sld_surf2 = 16.7099
.A_sld_surf2_M0 = 0
.A_sld_surf2_mphi = 0
.A_sld_surf2_mtheta = 0
.A_thickness_bilayer = 2.46829 in [2,4.38]
.A_thickness_bilayer_pd = 0
.A_thickness_bilayer_pd_n = 35
.A_thickness_bilayer_pd_nsigma = 3
.A_thickness_mixedtails = 0.984
.A_thickness_mixedtails_pd = 0
.A_thickness_mixedtails_pd_n = 35
.A_thickness_mixedtails_pd_nsigma = 3
.A_v_surf1 = 0.482
.A_v_surf1_pd = 0
.A_v_surf1_pd_n = 35
.A_v_surf1_pd_nsigma = 3
.A_v_surf1_tail = 0.3771
.A_v_surf1_tail_pd = 0
.A_v_surf1_tail_pd_n = 35
.A_v_surf1_tail_pd_nsigma = 3
.A_v_surf2 = 0.3408
.A_v_surf2_pd = 0
.A_v_surf2_pd_n = 35
.A_v_surf2_pd_nsigma = 3
.A_v_surf2_tail = 0.3336
.A_v_surf2_tail_pd = 0
.A_v_surf2_tail_pd_n = 35
.A_v_surf2_tail_pd_nsigma = 3
.A_volume = 2699.8
.A_volume_pd = 0.242695
.A_volume_pd_n = 35
.A_volume_pd_nsigma = 3
.A_x_methyl_c = 0.1667
.A_x_methyl_c_pd = 0
.A_x_methyl_c_pd_n = 35
.A_x_methyl_c_pd_nsigma = 3
.A_x_surf1 = 0.62
.A_x_surf1_pd = 0
.A_x_surf1_pd_n = 35
.A_x_surf1_pd_nsigma = 3
.A_x_surf2_o = 0.46059 in [0.0289529,0.595158]
.A_x_surf2_o_pd = 0
.A_x_surf2_o_pd_n = 35
.A_x_surf2_o_pd_nsigma = 3
.B_length = 0.984
.B_length_pd = 0
.B_length_pd_n = 35
.B_length_pd_nsigma = 3
.B_phi = 60
.B_phi_pd = 0
.B_phi_pd_n = 35
.B_phi_pd_nsigma = 3
.B_radius = 0.104577
.B_radius_pd = 0
.B_radius_pd_n = 35
.B_radius_pd_nsigma = 3
.B_scale = 0.000155639
.B_sld = 79.6694
.B_sld_M0 = 0
.B_sld_mphi = 0
.B_sld_mtheta = 0
.B_sld_solvent = 9.414
.B_sld_solvent_M0 = 0
.B_sld_solvent_mphi = 0
.B_sld_solvent_mtheta = 0
.B_theta = 60
.B_theta_pd = 0
.B_theta_pd_n = 35
.B_theta_pd_nsigma = 3
.background = 0
.scale = 53487.7
.up_angle = 0
.up_frac_f = 0
.up_frac_i = 0
.up_phi = 0

[chisq=33(23)e-3, nllf=1.04817]
              Parameter       mean  median    best [   68% interval] [   95% interval]
 1  A_thickness_bilayer   2.37(23)   2.347   2.468 [   2.11    2.62] [   2.02    2.85]
 2          A_x_surf2_o  0.409(90)   0.430   0.461 [   0.32    0.49] [   0.18    0.54]

Statistics and plots based on 20220 samples (100.0% of total samples drawn)
