q / 1/nm  I / 1/cm  dI / 1/cm  sigmaq / 1/nm
0.66458  0.628891  0.00160207  0.0572839
0.719831  0.625464  0.00153778  0.0584525
0.775051  0.625602  0.00147525  0.059688
0.830236  0.626336  0.00143501  0.0609861
0.885386  0.625639  0.00138598  0.0623427
0.940497  0.626042  0.00133994  0.0637539
0.995567  0.630473  0.00131733  0.0652158
1.05059  0.627934  0.00126571  0.0667249
1.10558  0.626169  0.00122395  0.0682779
1.16051  0.631217  0.00119391  0.0698715
1.21539  0.62693  0.00116906  0.0715027
1.27023  0.624416  0.00115094  0.0731689
1.325  0.62461  0.00111998  0.0748673
1.37972  0.625218  0.00108738  0.0765956
1.43438  0.628217  0.00106074  0.0783516
1.48898  0.62496  0.00105498  0.080133
1.54352  0.624639  0.00108115  0.081938
1.59799  0.624689  0.00111588  0.0837648
1.65239  0.626039  0.00109191  0.0856117
1.70672  0.626578  0.00104054  0.087477
1.76098  0.625648  0.0010026  0.0893594
1.81517  0.623946  0.000978284  0.0912576
1.86928  0.621279  0.000966902  0.0931701
1.92331  0.622658  0.000953111  0.095096
1.97726  0.626879  0.00094436  0.097034
2.03112  0.625051  0.000938377  0.0989832
2.08491  0.624694  0.000920196  0.100943
2.1386  0.623684  0.000911929  0.102911
2.19221  0.622879  0.000894664  0.104888
2.24572  0.622276  0.000882608  0.106873
2.29914  0.621445  0.000873036  0.108865
2.35247  0.621537  0.000861198  0.110864
2.4057  0.623232  0.000857589  0.112868
2.45883  0.623622  0.00084505  0.114877
2.51186  0.623305  0.000834471  0.11689
2.56479  0.623217  0.000830572  0.118907
2.61762  0.624426  0.000833746  0.120928
2.67034  0.620989  0.000843021  0.122952
2.72295  0.623053  0.000851174  0.124979
2.77545  0.623895  0.00085858  0.127007
2.82784  0.623589  0.000854522  0.129038
2.88011  0.625154  0.000840002  0.13107
2.93228  0.623251  0.000818036  0.133102
2.98432  0.621102  0.000791705  0.135136
3.03625  0.622161  0.000774853  0.137169
3.08806  0.623181  0.000797639  0.139203
3.13974  0.624485  0.000884689  0.141236
3.19131  0.621473  0.000941172  0.143269
3.24275  0.62369  0.00100281  0.145301
3.29406  0.621707  0.00105876  0.147333
3.34524  0.622236  0.00111293  0.149362
3.3963  0.623577  0.00116587  0.15139
3.44723  0.623724  0.00120348  0.153417
3.49802  0.624808  0.0012475  0.155441
3.54869  0.621168  0.00129257  0.157464
3.59921  0.621243  0.00134928  0.159484
3.6496  0.62206  0.00143081  0.161501
3.69986  0.620874  0.00151612  0.163516
3.74997  0.624407  0.00162455  0.165528
3.79995  0.618475  0.00173485  0.167536
3.84979  0.619594  0.00186237  0.169542
3.89948  0.620804  0.00202906  0.171544
3.94903  0.620734  0.00213275  0.173543
3.99843  0.622203  0.00229783  0.175538
4.04769  0.621328  0.00237992  0.177529
4.09681  0.626079  0.00252018  0.179516
4.14577  0.615303  0.00281309  0.1815
4.19459  0.616139  0.00353963  0.183479
4.24325  0.625465  0.00662626  0.185454
4.29177  0.632834  0.0181642  0.187424
0.223031  0.634774  0.00667416  0.0234204
0.231607  0.662213  0.00681549  0.02357
0.240182  0.654534  0.00685204  0.0237242
0.248758  0.644043  0.00694252  0.023883
0.257333  0.640534  0.00668086  0.0240462
0.265908  0.634362  0.00639373  0.0242138
0.274483  0.62855  0.00612979  0.0243857
0.283057  0.641419  0.0060791  0.0245618
0.291631  0.635183  0.00599182  0.024742
0.300205  0.635535  0.00581256  0.0249262
0.308778  0.63529  0.00572098  0.0251143
0.317352  0.640354  0.00565721  0.0253062
0.325924  0.639436  0.00552843  0.0255019
0.334497  0.646789  0.00551468  0.0257012
0.343069  0.64833  0.00550195  0.0259041
0.351641  0.665023  0.00546821  0.0261105
0.360212  0.644294  0.00527209  0.0263203
0.368783  0.656452  0.00528355  0.0265335
0.377354  0.654878  0.00513825  0.0267498
0.385924  0.659144  0.00510118  0.0269694
0.394494  0.645924  0.00497819  0.027192
0.403063  0.631152  0.00499732  0.0274176
0.411632  0.628181  0.00499801  0.0276462
0.420201  0.631903  0.00500839  0.0278776
0.428769  0.641496  0.00510637  0.0281119
0.437336  0.618649  0.00497258  0.0283488
0.445904  0.624503  0.00498604  0.0285884
0.45447  0.618891  0.0048547  0.0288306
0.463037  0.631595  0.00482776  0.0290753
0.471602  0.637708  0.00469921  0.0293224
0.480168  0.644389  0.00457803  0.029572
0.488733  0.655575  0.00472517  0.0298239
0.497297  0.635192  0.00504349  0.030078
0.505861  0.639912  0.00551023  0.0303344
0.514424  0.62993  0.00572492  0.0305929
0.522986  0.646097  0.0061202  0.0308536
0.531549  0.64448  0.00644132  0.0311162
0.54011  0.629823  0.00664125  0.0313809
0.548671  0.626508  0.00681742  0.0316475
0.557232  0.626318  0.00702695  0.031916
0.565792  0.620911  0.00736165  0.0321864
0.574351  0.628582  0.00760546  0.0324586
0.582909  0.623592  0.00800384  0.0327325
0.591468  0.642083  0.00866324  0.0330081
0.600025  0.629437  0.00917394  0.0332854
0.608582  0.63356  0.00988743  0.0335643
0.617138  0.63205  0.0105247  0.0338448
0.625693  0.646061  0.0115635  0.0341268
0.0301554  0.614506  0.124325  0.00867048
0.033506  0.783124  0.100376  0.00869263
0.0368566  0.50689  0.0805522  0.00871705
0.0402071  0.613325  0.0708562  0.00874372
0.0435577  0.641816  0.0618329  0.00877261
0.0469082  0.635808  0.0564581  0.00880371
0.0502588  0.702616  0.0520174  0.00883699
0.0536093  0.752951  0.0480789  0.00887243
0.0569599  0.705864  0.0450871  0.00891
0.0603104  0.623637  0.0421137  0.00894967
0.0636609  0.638173  0.0407169  0.00899142
0.0670114  0.66194  0.0386114  0.00903521
0.0703619  0.578606  0.0356987  0.00908103
0.0737124  0.646683  0.0358818  0.00912883
0.0770629  0.82019  0.0361465  0.00917859
0.0804133  0.720078  0.033714  0.00923027
0.0837638  0.696942  0.0317481  0.00928385
0.0871142  0.722788  0.0306021  0.00933929
0.0904646  0.69162  0.029659  0.00939655
0.093815  0.631655  0.0299647  0.00945561
0.0971654  0.647706  0.0309198  0.00951643
0.100516  0.707046  0.0305099  0.00957897
0.103866  0.705126  0.0288231  0.00964321
0.107216  0.709386  0.0278585  0.00970911
0.110567  0.680263  0.0265028  0.00977663
0.113917  0.729515  0.0267295  0.00984575
0.117267  0.767631  0.0265733  0.00991643
0.120618  0.747589  0.025872  0.00998863
0.123968  0.660031  0.0238692  0.0100623
0.127318  0.714328  0.0250015  0.0101375
0.130668  0.688992  0.0245715  0.0102141
0.134019  0.694926  0.0238507  0.010292
0.137369  0.694854  0.0236229  0.0103714
0.140719  0.626163  0.0223295  0.0104521
0.144069  0.747755  0.0235218  0.010534
0.147419  0.640785  0.0214918  0.0106173
0.150769  0.681023  0.0216822  0.0107018
0.154119  0.725271  0.0220475  0.0107875
0.157469  0.73823  0.0217287  0.0108744
0.160819  0.753182  0.0220771  0.0109625
0.164169  0.780736  0.0229955  0.0110516
0.167519  0.727281  0.022699  0.0111419
0.170869  0.71168  0.0222879  0.0112333
0.174219  0.702862  0.022189  0.0113257
0.177569  0.695624  0.0219524  0.0114191
0.180919  0.702626  0.0217152  0.0115135
0.184269  0.718585  0.0211441  0.0116089
0.187618  0.71547  0.0202342  0.0117053
0.190968  0.758918  0.0215379  0.0118026
0.194318  0.740933  0.0233345  0.0119008
0.197667  0.651502  0.0238602  0.0119998
0.201017  0.763586  0.0262483  0.0120998
0.204367  0.747906  0.0273771  0.0122005
0.207716  0.738104  0.028889  0.0123021
0.211066  0.713183  0.0296886  0.0124045
0.214415  0.71834  0.0310402  0.0125077
